<svg width="104" height="70" viewBox="0 0 104 70" fill="none" xmlns="http://www.w3.org/2000/svg">
<path fill-rule="evenodd" clip-rule="evenodd" d="M55.5359 12.2183C58.7785 7.82474 63.8313 5 69.5076 5C79.2929 5 87.2253 13.3944 87.2253 23.7495C87.2253 27.6306 86.111 31.2363 84.2025 34.2277C87.3515 37.6922 89.1958 42.4465 88.9835 47.5918C88.5836 57.2824 81.0303 64.9272 71.8231 65L71.8178 65H71.8125H30.2751L30.2705 65C23.0428 64.9754 16.9556 59.2854 16.101 51.7217C15.2801 44.4554 19.5393 37.6799 26.1009 35.5583C27.2816 22.3323 38.2523 12.0532 50.9021 11.7513C52.478 11.7555 54.0278 11.9151 55.5359 12.2183ZM53.1935 16.4234C52.4209 16.3292 51.6371 16.2802 50.845 16.2786C40.4538 16.3028 31.7918 24.3993 30.3981 35.0335C33.3671 35.2108 36.1888 36.4637 38.3816 38.5832L38.405 38.6059L38.4274 38.6296C39.2507 39.4998 39.2564 40.9059 38.4446 41.7837C38.045 42.2261 37.4929 42.4761 36.9165 42.4791C36.386 42.4827 35.8719 42.2766 35.4767 41.899L35.4699 41.8925C33.993 40.4634 32.0854 39.6217 30.0776 39.515C29.6294 39.5149 28.5834 39.5728 28.1412 39.6491C23.2055 40.9315 19.6263 45.951 20.2281 51.2372C20.8304 56.5272 25.095 60.5295 30.185 60.5484H71.7201C78.8266 60.5484 84.6322 54.2111 84.6328 46.6926C84.6303 43.2403 83.3966 40.0816 81.3623 37.6842C78.2226 40.6773 74.0662 42.4991 69.5076 42.4991C59.7224 42.4991 51.7899 34.1046 51.7899 23.7495C51.7899 21.15 52.2898 18.674 53.1935 16.4234ZM80.7478 31.2916C82.0569 29.1113 82.8151 26.5242 82.8151 23.7497C82.8151 20.7043 81.9015 17.8848 80.3486 15.581L71.0686 25.4015L61.7885 35.222C63.9654 36.8653 66.6297 37.8321 69.5076 37.8321C72.652 37.8321 75.5417 36.6781 77.8191 34.7483L80.7478 31.2916ZM77.2308 12.2803L58.6696 31.9225C57.115 29.618 56.2002 26.7969 56.2002 23.7496C56.2002 21.4974 56.6998 19.3687 57.5881 17.4808L60.2141 13.6702C62.6125 11.1933 65.8917 9.66706 69.5077 9.66706C72.3872 9.66706 75.0531 10.6352 77.2308 12.2803Z" fill="#CFCBC3"/>
</svg>
