<svg xmlns="http://www.w3.org/2000/svg" width="18" height="18" viewBox="0 0 18 18">
  <g id="icons-/-close" fill="none" fill-rule="evenodd" stroke="none" stroke-width="1">
    <path id="Path" fill="#766E68" fill-rule="nonzero" d="M4.14705176,4.30378835 L4.21966991,4.21966991 C4.48593648,3.95340335 4.90260016,3.9291973 5.19621165,4.14705176 L5.28033009,4.21966991 L8.639,7.578 L11.9978445,4.21966991 C12.2907377,3.9267767 12.7656115,3.9267767 13.0585047,4.21966991 C13.3513979,4.51256313 13.3513979,4.98743687 13.0585047,5.28033009 L9.7,8.639 L13.0585047,11.9978445 C13.3247712,12.2641111 13.3489773,12.6807748 13.1311228,12.9743862 L13.0585047,13.0585047 C12.7922381,13.3247712 12.3755744,13.3489773 12.0819629,13.1311228 L11.9978445,13.0585047 L8.639,9.7 L5.28033009,13.0585047 C4.98743687,13.3513979 4.51256313,13.3513979 4.21966991,13.0585047 C3.9267767,12.7656115 3.9267767,12.2907377 4.21966991,11.9978445 L7.578,8.639 L4.21966991,5.28033009 C3.95340335,5.01406352 3.9291973,4.59739984 4.14705176,4.30378835 L4.21966991,4.21966991 L4.14705176,4.30378835 Z"/>
  </g>
</svg>
